^C:\USERS\JABAH\SOURCE\REPOS\EX_18.5\EX_18.5.CPP
C:\USERS\JABAH\SOURCE\REPOS\EX_18.5\DEBUG\VC142.PDB
C:\USERS\JABAH\SOURCE\REPOS\EX_18.5\DEBUG\VC142.IDB
C:\USERS\JABAH\SOURCE\REPOS\EX_18.5\DEBUG\EX_18.5.OBJ
